pkgs_df. CRAmisc 0.4.4.9000
…
Returns a tibble
containing a subset of information about the packages installed.

      Description

      pkgs_df returns a tibble containing a subset of
information about the packages installed.

    Examples

pkgs <- pkgs_df()
pkgs

# A tibble: 170 × 6
      Package  Version                                              Depends
        <chr>    <chr>                                                <chr>
1  assertthat      0.1                                                 <NA>
2   babynames    0.2.1                                          R (>= 2.10)
3        base    3.3.1                                                 <NA>
4   base64enc    0.1-3                                         R (>= 2.9.0)
5          BH 1.60.0-2                                                 <NA>
6         bit   1.1-12                                         R (>= 2.9.2)
7       bit64    0.9-5 R (>= 3.0.1), bit (>= 1.1-12), utils, methods, stats
8      bitops    1.0-6                                                 <NA>
9    bookdown      0.1                                                 <NA>
10       boot   1.3-18                        R (>= 3.0.0), graphics, stats
# ... with 160 more rows, and 3 more variables: Imports <chr>, LibPath <chr>,
#   Built <chr>
…
